\relax 
\@writefile{toc}{\contentsline {section}{\numberline {1}Ausgangsituation}{1}}
\@writefile{toc}{\contentsline {section}{\numberline {2}Mengen und Parameter}{1}}
\@writefile{toc}{\contentsline {section}{\numberline {3}Das Basismodell}{2}}
\@writefile{toc}{\contentsline {subsection}{\numberline {3.1}Variablen}{2}}
\@writefile{toc}{\contentsline {subsection}{\numberline {3.2}Gemischt-ganzzahliges lineares Programm}{4}}
\newlabel{zf}{{1}{4}}
\newlabel{kap}{{2}{4}}
\newlabel{startbestand}{{3}{4}}
\newlabel{bestand1}{{4}{4}}
\newlabel{bestand2}{{5}{4}}
\newlabel{minprod}{{6}{4}}
\newlabel{bigM}{{7}{4}}
\newlabel{split}{{8}{4}}
\newlabel{plant}{{9}{5}}
\newlabel{split2}{{10}{5}}
\newlabel{basket1}{{11}{5}}
\newlabel{basket2}{{12}{5}}
\newlabel{mindestbestand}{{13}{5}}
\newlabel{maximalbestand}{{14}{5}}
\@writefile{toc}{\contentsline {subsection}{\numberline {3.3}Absch\IeC {\"a}tzung des big Ms}{6}}
\@writefile{toc}{\contentsline {subsection}{\numberline {3.4}Absch\IeC {\"a}tzung der dummy-Kosten}{6}}
\@writefile{toc}{\contentsline {section}{\numberline {4}Algorithmus zur L\IeC {\"o}sung des Modells}{7}}
\@writefile{toc}{\contentsline {subsection}{\numberline {4.1}Einschr\IeC {\"a}nkung der Transportm\IeC {\"o}glichkeiten}{7}}
\@writefile{toc}{\contentsline {subsection}{\numberline {4.2}Warenk\IeC {\"o}rbe}{7}}
\@writefile{toc}{\contentsline {subsubsection}{\numberline {4.2.1}Mathematische Beschreibung}{7}}
\@writefile{toc}{\contentsline {subsubsection}{\numberline {4.2.2}Ausschluss nach Bedarfen}{7}}
\@writefile{toc}{\contentsline {subsubsection}{\numberline {4.2.3}Dominanz}{7}}
\@writefile{toc}{\contentsline {subsubsection}{\numberline {4.2.4}Separation}{8}}
\@writefile{toc}{\contentsline {subsection}{\numberline {4.3}CPLEX-Einstellungen}{8}}
\@writefile{toc}{\contentsline {subsubsection}{\numberline {4.3.1}Ausgangspunkt}{8}}
\@writefile{toc}{\contentsline {subsubsection}{\numberline {4.3.2}Solution Polishing (Versuch, momentan kein Einsatz, da Effizienz des Algorithmus gesteigert werden konnte)}{8}}
\@writefile{toc}{\contentsline {subsection}{\numberline {4.4}M\IeC {\"o}gliche Erweiterungen der Warenk\IeC {\"o}rbe}{11}}
\@writefile{toc}{\contentsline {subsubsection}{\numberline {4.4.1}Festlegung einer Mindestanzahl im Warenkorb}{11}}
\@writefile{toc}{\contentsline {subsubsection}{\numberline {4.4.2}Festlegung einer Mindestrelation im Warenkorb}{11}}
\@writefile{toc}{\contentsline {subsubsection}{\numberline {4.4.3}Festlegung von exakten Warenkorbrelationen}{12}}
\@writefile{toc}{\contentsline {section}{\numberline {5}Ber\IeC {\"u}cksichtigung von kundenbezogenen Beschr\IeC {\"a}nkungen}{12}}
\@writefile{toc}{\contentsline {subsection}{\numberline {5.1}Gemischt-ganzzahliges lineares Programm}{13}}
\newlabel{zfX}{{15}{13}}
\newlabel{kapX}{{16}{14}}
\newlabel{startbestandX}{{17}{14}}
\newlabel{startbestandXC}{{18}{14}}
\newlabel{bestand1X}{{19}{14}}
\newlabel{bestand1XC}{{20}{14}}
\newlabel{minprodX}{{21}{14}}
\newlabel{bigMX}{{22}{14}}
\newlabel{splitX}{{23}{14}}
\newlabel{plant}{{24}{15}}
\newlabel{split2X}{{25}{15}}
\newlabel{basket1X}{{26}{15}}
\newlabel{basket2X}{{27}{15}}
\newlabel{mindestbestandX}{{28}{15}}
\newlabel{maximalbestandX}{{29}{15}}
\newlabel{KundenmindestbestandX}{{30}{15}}
\newlabel{maxFictTransportX}{{31}{15}}
\@writefile{toc}{\contentsline {section}{\numberline {6}Zuordnung von Maschinenproduktionen zu Kundenstandorten}{16}}
\@writefile{toc}{\contentsline {subsection}{\numberline {6.1}Parameter}{16}}
\@writefile{toc}{\contentsline {subsection}{\numberline {6.2}Variablen}{16}}
\@writefile{toc}{\contentsline {subsection}{\numberline {6.3}Modell}{18}}
\newlabel{zf2}{{33}{18}}
\newlabel{csinv}{{34}{18}}
\newlabel{cinvp}{{35}{18}}
\newlabel{mictrans}{{36}{18}}
\newlabel{mctrans}{{37}{18}}
